traffic.vcd
$date
	Thu Jun 18 19:06:05 2026
$end
$version
	Icarus Verilog
$end
$timescale
	1ps
$end
$scope module traffic_tb $end
$scope module DUT $end
$var wire 1 ! clk $end
$var wire 1 " emergency $end
$var wire 1 # ped_button $end
$var wire 1 $ rst $end
$var reg 1 % EW_G $end
$var reg 1 & EW_R $end
$var reg 1 ' EW_Y $end
$var reg 1 ( NS_G $end
$var reg 1 ) NS_R $end
$var reg 1 * NS_Y $end
$var reg 4 + current_state [3:0] $end
$var reg 4 , next_state [3:0] $end
$var reg 8 - timer_count [7:0] $end
$upscope $end
$upscope $end
$enddefinitions $end
$comment Show the parameter values. $end
$dumpall
$end
#0
$dumpvars
bx -
b0 ,
bx +
0*
0)
0(
0'
0&
0%
1$
0#
0"
0!
$end
#5000
1&
1(
b0 -
b0 +
1!
#10000
0!
#15000
1!
#20000
0!
0$
#25000
b1 -
1!
#30000
0!
#35000
b10 -
1!
#40000
0!
#45000
b11 -
1!
#50000
0!
#55000
b100 -
1!
#60000
0!
#65000
b101 -
1!
#70000
0!
#75000
b110 -
1!
#80000
0!
#85000
b111 -
1!
#90000
0!
#95000
b1000 -
1!
#100000
0!
#105000
b1001 -
1!
#110000
0!
#115000
b1 ,
b1010 -
1!
#120000
0!
1#
#125000
1*
1&
0(
b0 -
b1 +
1!
#130000
0!
#135000
b1 -
1!
#140000
0!
0#
#145000
b10 -
1!
#150000
0!
#155000
b10 ,
b11 -
1!
#160000
0!
#165000
1)
1&
0*
b0 -
b10 +
1!
#170000
0!
#175000
b1 -
1!
#180000
0!
#185000
b100 ,
b10 -
1!
#190000
0!
#195000
1%
0&
1)
b0 -
b100 +
1!
#200000
0!
#205000
b1 -
1!
#210000
0!
#215000
b10 -
1!
#220000
b111 ,
0!
1"
#225000
1&
1(
0%
0)
b0 -
b111 +
1!
#230000
0!
#235000
b1 -
1!
#240000
0!
#245000
b10 -
1!
#250000
0!
#255000
b11 -
1!
#260000
0!
#265000
b100 -
1!
#270000
b0 ,
0!
0"
#275000
1&
1(
b0 -
b0 +
1!
#280000
0!
#285000
b1 -
1!
#290000
0!
#295000
b10 -
1!
#300000
0!
#305000
b11 -
1!
#310000
0!
#315000
b100 -
1!
#320000
0!
#325000
b101 -
1!
#330000
0!
#335000
b110 -
1!
#340000
0!
#345000
b111 -
1!
#350000
0!
#355000
b1000 -
1!
#360000
0!
#365000
b1001 -
1!
#370000
0!
#375000
b1 ,
b1010 -
1!
#380000
0!
#385000
1*
1&
0(
b0 -
b1 +
1!
#390000
0!
#395000
b1 -
1!
#400000
0!
#405000
b10 -
1!
#410000
0!
#415000
b10 ,
b11 -
1!
#420000
0!
#425000
1)
1&
0*
b0 -
b10 +
1!
#430000
0!
#435000
b1 -
1!
#440000
0!
#445000
b100 ,
b10 -
1!
#450000
0!
#455000
1%
0&
1)
b0 -
b100 +
1!
#460000
0!
#465000
b1 -
1!
#470000
0!
#475000
b10 -
1!
#480000
0!
#485000
b11 -
1!
#490000
0!
#495000
b100 -
1!
#500000
0!
#505000
b101 -
1!
#510000
0!
#515000
b110 -
1!
#520000
0!
#525000
b111 -
1!
#530000
0!
#535000
b1000 -
1!
#540000
0!
#545000
b1001 -
1!
#550000
0!
#555000
b101 ,
b1010 -
1!
#560000
0!
#565000
1'
0%
1)
b0 -
b101 +
1!
#570000
0!
#575000
b1 -
1!
#580000
0!
#585000
b10 -
1!
#590000
0!
#595000
b110 ,
b11 -
1!
#600000
0!
#605000
1&
0'
1)
b0 -
b110 +
1!
#610000
0!
#615000
b1 -
1!
#620000
0!
#625000
b0 ,
b10 -
1!
#630000
0!
#635000
1(
1&
0)
b0 -
b0 +
1!
#640000
0!
#645000
b1 -
1!
#650000
0!
#655000
b10 -
1!
#660000
0!
#665000
b11 -
1!
#670000
0!
#675000
b100 -
1!
#680000
0!
#685000
b101 -
1!
#690000
0!
#695000
b110 -
1!
#700000
0!
#705000
b111 -
1!
#710000
0!
#715000
b1000 -
1!
#720000
0!
#725000
b1001 -
1!
#730000
0!
#735000
b1 ,
b1010 -
1!
#740000
0!
#745000
1*
1&
0(
b0 -
b1 +
1!
#750000
0!
#755000
b1 -
1!
#760000
0!
#765000
b10 -
1!
